{
  "name": "Message",
  "base": "PersistedModel",
  "idInjection": true,
  "options": {
    "validateUpsert": true
  },
  "mixins": {
    "Timestamp": null
  },
  "properties": {
    "subject": {
      "type": "string",
      "required": true
    },
    "text": {
      "type": "string",
      "required": true
    },
    "hidden": {
      "type": "boolean"
    }
  },
  "validations": [],
  "relations": {
    "receiver": {
      "type": "belongsTo",
      "polymorphic": "receiver"
    },
    "sender": {
      "type": "belongsTo",
      "polymorphic": "sender"
    }
  },
  "acls": [
    {
      "accessType": "*",
      "principalType": "ROLE",
      "principalId": "$everyone",
      "permission": "DENY"
    },
    {
      "accessType": "*",
      "principalType": "ROLE",
      "principalId": "$authenticated",
      "permission": "ALLOW"
    }
  ],
  "methods": {
    "multiSend": {
      "accepts": [
        {
          "arg": "data",
          "type": [
            "object"
          ],
          "descriprion": "Messages to be sent",
          "required": true
        }
      ],
      "returns": {
        "arg": "result",
        "type": "string"
      },
      "http": {
        "verb": "POST"
      }
    }
  }
}
